ID	Hora Evento	Dia	Ultrasonido
 
3101	01:06:27	1306	FALSE
3102	04:48:58	1306	FALSE
3103	07:04:42	1306	FALSE
3104	07:48:54	1306	FALSE
3105	22:39:34	1306	FALSE
3106	23:22:52	1306	FALSE

3107	01:20:30	1406	FALSE
3108	01:29:58	1406	FALSE
3109	07:17:56	1406	FALSE
3110	07:51:02	1406	FALSE
3111	08:14:45	1406	FALSE
3112	08:49:12	1406	FALSE
3113	21:26:12	1406	FALSE
3114	22:23:46	1406	FALSE
3115	22:49:51	1406	FALSE
3116	23:02:08	1406	FALSE

3117	01:00:51	1506	FALSE
3118	01:02:23	1506	FALSE
3119	04:24:02	1506	FALSE
3120	04:24:52	1506	FALSE
3121	08:45:48	1506	FALSE
3122	22:25:13	1506	FALSE
3123	22:38:07	1506	FALSE

3124	01:52:56	1606	FALSE
3125	01:54:03	1606	FALSE
3126	08:11:55	1606	FALSE
3127	08:44:26	1606	FALSE
3128	21:43:31	1606	FALSE
3129	21:44:25	1606	FALSE

3130	04:03:34	1706	FALSE
3131	06:44:33	1706	FALSE
3132	08:25:10	1706	FALSE
3133	23:35:08	1706	FALSE
3134	23:35:51	1706	FALSE

3135	03:42:12	1806	FALSE
3136	08:46:19	1806	FALSE
3137	22:22:29	1806	FALSE

3138	04:37:39	1906	FALSE
3139	07:59:47	1906	FALSE
3140	08:11:23	1906	FALSE
3141	22:01:41	1906	FALSE

3142	01:08:28	2006	FALSE
3143	01:09:26	2006	FALSE
3144	04:45:57	2006	FALSE
3145	05:05:57	2006	FALSE
3146	06:54:26	2006	FALSE
3147	08:43:54	2006	FALSE
3148	21:14:02	2006	FALSE
3149	23:22:41	2006	FALSE

3150	03:37:40	2106	FALSE
3151	05:15:50	2106	FALSE
3152	07:45:31	2106	FALSE
3153	21:02:24	2106	FALSE
3154	22:05:33	2106	FALSE
3155	23:49:44	2106	FALSE

3156	04:02:40	2206	FALSE
3157	07:10:11	2206	FALSE
3158	07:55:58	2206	FALSE
3159	08:47:51	2206	FALSE
3160	08:54:57	2206	FALSE
3161	22:58:10	2206	FALSE
3162	23:47:06	2206	FALSE

3163	03:08:19	2306	FALSE
3164	03:17:52	2306	FALSE
3165	08:31:15	2306	FALSE
3166	08:57:21	2306	FALSE
3167	23:17:41	2306	FALSE

3168	01:19:28	2406	FALSE
3169	07:30:19	2406	FALSE
3170	21:07:01	2406	FALSE

3171	07:24:58	2506	FALSE
3172	21:15:16	2506	FALSE
3173	21:23:30	2506	FALSE

3174	00:28:25	2606	FALSE
3175	01:50:03	2606	FALSE
3176	07:02:18	2606	FALSE
3177	07:59:57	2606	FALSE

3178	08:32:29	2706	FALSE
3179	08:36:52	2706	FALSE

3180	01:48:10	2806	FALSE
3181	04:46:25	2806	FALSE
3182	04:50:34	2806	FALSE
3183	04:51:12	2806	FALSE
3184	08:11:27	2806	FALSE
3185	08:13:20	2806	FALSE
3186	08:16:27	2806	FALSE
3187	23:18:16	2806	FALSE

3188	00:21:06	2906	FALSE
3189	07:09:52	2906	FALSE
3190	07:10:54	2906	FALSE
3191	07:12:22	2906	FALSE
3192	07:14:11	2906	FALSE
3193	08:26:38	2906	FALSE

3194	00:01:31	3006	FALSE
3195	00:05:53	3006	FALSE
3196	00:07:16	3006	FALSE
3197	00:07:55	3006	FALSE
3198	00:08:59	3006	FALSE
3199	00:29:16	3006	FALSE
31100	04:20:05	3006	FALSE
31101	04:26:38	3006	FALSE
31102	04:33:40	3006	FALSE
31103	04:35:53	3006	FALSE
31104	08:31:33	3006	FALSE

31105	00:44:53	0107	FALSE
31106	00:46:07	0107	FALSE
31107	00:53:45	0107	FALSE
31108	01:02:20	0107	FALSE
31109	01:26:41	0107	FALSE
31110	01:27:06	0107	FALSE
31111	01:27:38	0107	FALSE
31112	01:28:08	0107	FALSE
31113	01:28:43	0107	FALSE
31114	01:29:05	0107	FALSE
31115	01:30:50	0107	FALSE
31116	01:31:22	0107	FALSE
31117	01:32:21	0107	FALSE
31118	01:32:47	0107	FALSE
31119	01:33:17	0107	FALSE
31120	01:33:41	0107	FALSE
31121	01:33:58	0107	FALSE
31122	01:34:13	0107	FALSE
31123	01:34:38	0107	FALSE
31124	01:35:09	0107	FALSE
31125	01:35:41	0107	FALSE
31126	01:36:16	0107	FALSE
31127	08:42:10	0107	FALSE

31128	04:16:26	0207	FALSE
31129	08:17:29	0207	FALSE
31130	08:51:29	0207	FALSE
31131	21:11:17	0207	FALSE


31132	04:40:36	0407	FALSE

31133	05:19:32	0507	FALSE
31134	06:59:04	0507	FALSE

31135	07:49:04	0607	FALSE
31136	21:10:13	0607	FALSE
31137	22:16:05	0607	FALSE
31138	23:27:58	0607	FALSE

31139	07:11:44	0707	FALSE
31140	08:53:41	0707	FALSE

31141	05:44:57	0807	FALSE
31142	06:36:18	0807	FALSE
31143	21:11:58	0807	FALSE
31144	23:04:43	0807	FALSE

31145	04:26:13	0907	FALSE
31146	22:45:39	0907	FALSE

31147	07:46:00	1007	FALSE

31148	06:57:28	1107	FALSE
31149	22:14:34	1107	FALSE
31150	23:38:30	1107	FALSE

31151	08:29:37	1207	FALSE
31152	08:58:37	1207	FALSE

